[gd_scene load_steps=4 format=2]

[ext_resource path="res://scripts/Dialog.gd" type="Script" id=1]
[ext_resource path="res://gui/fabrik.ttf" type="DynamicFontData" id=2]

[sub_resource type="DynamicFont" id=1]
size = 30
font_data = ExtResource( 2 )

[node name="Dialog" type="Control"]
anchor_right = 0.98
anchor_bottom = 0.975
margin_left = 25.0
margin_right = -978.52
margin_bottom = -585.0
script = ExtResource( 1 )
__meta__ = {
"_edit_use_anchors_": false
}

[node name="VBoxContainer" type="VBoxContainer" parent="."]
custom_constants/separation = 15
__meta__ = {
"_edit_use_anchors_": false
}

[node name="Speaker" type="Label" parent="VBoxContainer"]
margin_right = 650.0
margin_bottom = 14.0

[node name="RichTextLabel" type="RichTextLabel" parent="VBoxContainer"]
margin_top = 29.0
margin_right = 650.0
margin_bottom = 279.0
rect_min_size = Vector2( 650, 250 )
custom_fonts/normal_font = SubResource( 1 )
__meta__ = {
"_edit_use_anchors_": false
}

[node name="Timer" type="Timer" parent="VBoxContainer/RichTextLabel"]
wait_time = 0.052
autostart = true
[connection signal="timeout" from="VBoxContainer/RichTextLabel/Timer" to="." method="_on_Timer_timeout"]
