[gd_scene load_steps=3 format=2]

[ext_resource path="res://environment/moveable_rock03-shadow.png" type="Texture" id=1]
[ext_resource path="res://scripts/MoveableRockFlat.gd" type="Script" id=2]

[node name="MoveableRockFlat" type="RigidBody2D"]
mass = 150.82
gravity_scale = 0.0
script = ExtResource( 2 )

[node name="Sprite" type="Sprite" parent="."]
scale = Vector2( 0.5, 0.5 )
texture = ExtResource( 1 )

[node name="CollisionPolygon2D" type="CollisionPolygon2D" parent="."]
polygon = PoolVector2Array( -6.08505, -40.1979, 17.7529, -25.8952, 35.7637, 4.2995, 34.1745, 15.4238, 20.4015, 30.2563, 0.801453, 42.4401, -25.1554, 38.732, -34.6905, 18.0725, -24.6256, -2.58701, -8.7337, -18.4789 )
