[gd_scene load_steps=3 format=2]

[ext_resource path="res://environment/moveable_rock01-shadow.png" type="Texture" id=1]
[ext_resource path="res://scripts/MoveableRockFlat.gd" type="Script" id=2]

[node name="MoveableRockFlat" type="RigidBody2D"]
mass = 150.82
gravity_scale = 0.0
script = ExtResource( 2 )

[node name="Sprite" type="Sprite" parent="."]
scale = Vector2( 0.5, 0.5 )
texture = ExtResource( 1 )

[node name="CollisionPolygon2D" type="CollisionPolygon2D" parent="."]
polygon = PoolVector2Array( -46.8743, 76.8727, -48.9933, 40.8509, -60.1176, 13.3049, -49.523, -46.025, -36.2797, -75.6899, -9.26343, -74.1007, 7.15823, -80.9872, 35.7637, -76.7494, 57.4827, -12.1222, 54.3043, 13.8347, 60.1313, 36.0834, 29.4069, 69.4564, 9.27716, 72.1051, -34.1608, 79.5213 )
